B0C72620458508A944854785468500A9438570A9428501A93CE003E000E020E0
4705802943A5C0F1ADC0F08D15A96028A93804F070C9702943A508014C70A2E7
A5047F8D00A960187FA0FFA200A9602BA938C75A4C03B003C90BF042A504FF8D
03F001C942A5047F8C00A0C4AF20047FADC4AF2004FFADC4AF2046A5C4AF2042
00601800A9C4A520F8D0C84491C4A52045E6F8D0C84491C4A520C48620C4BC4C
0000000000000000000000000000000000000000000000000000000000000000
0000000000000000000000000000000000000000000000000000000000000000
2697000000000000000000000000006000000000000000000000000000000000
