B0C72620458508A944854785468500A9438570A9428501A93CE003E000E020E0
F042A504FF8D47A5C0F1ADC0F08D15A96028A93804F070C943A508014C70A2E7
46A5C4AF2042A5047F8D00A96018FFA0FFA200A9602BA938C7544C03B003C90B
C48620C4BC4C03F001C942A5047F8C00A0C4AF20047FADC4AF2004FFADC4AF20
00000000000000601800A9C4A520F8D0C84491C4A52045E6F8D0C84491C4A520
0000000000000000000000000000000000000000000000000000000000000000
0000000000000000000000000000000000000000000000000000000000000000
2687000000000000000000000000006000000000000000000000000000000000
